<?xml version="1.0" encoding="UTF-8" standalone="no"?>
<!-- Created with Inkscape (http://www.inkscape.org/) -->

<svg
   xmlns:dc="http://purl.org/dc/elements/1.1/"
   xmlns:cc="http://creativecommons.org/ns#"
   xmlns:rdf="http://www.w3.org/1999/02/22-rdf-syntax-ns#"
   xmlns:svg="http://www.w3.org/2000/svg"
   xmlns="http://www.w3.org/2000/svg"
   xmlns:sodipodi="http://sodipodi.sourceforge.net/DTD/sodipodi-0.dtd"
   xmlns:inkscape="http://www.inkscape.org/namespaces/inkscape"
   width="744.09448819"
   height="1052.3622047"
   id="svg2"
   version="1.1"
   inkscape:version="0.92.3 (2405546, 2018-03-11)"
   sodipodi:docname="begin-fra.svg"
   inkscape:export-filename="/media/usb0/deadline/7 titri/begin-fra.png"
   inkscape:export-xdpi="420"
   inkscape:export-ydpi="420">
  <defs
     id="defs4" />
  <sodipodi:namedview
     id="base"
     pagecolor="#ffffff"
     bordercolor="#666666"
     borderopacity="1.0"
     inkscape:pageopacity="0.0"
     inkscape:pageshadow="2"
     inkscape:zoom="1.4"
     inkscape:cx="146.64137"
     inkscape:cy="834.2601"
     inkscape:document-units="px"
     inkscape:current-layer="layer1"
     showgrid="false"
     inkscape:window-width="1680"
     inkscape:window-height="1015"
     inkscape:window-x="1280"
     inkscape:window-y="0"
     inkscape:window-maximized="1" />
  <metadata
     id="metadata7">
    <rdf:RDF>
      <cc:Work
         rdf:about="">
        <dc:format>image/svg+xml</dc:format>
        <dc:type
           rdf:resource="http://purl.org/dc/dcmitype/StillImage" />
        <dc:title></dc:title>
      </cc:Work>
    </rdf:RDF>
  </metadata>
  <g
     inkscape:label="Layer 1"
     inkscape:groupmode="layer"
     id="layer1">
    <rect
       style="fill:#000000"
       id="rect3958"
       width="409.11179"
       height="272.74118"
       x="57.578693"
       y="29.077656" />
    <flowRoot
       xml:space="preserve"
       id="flowRoot2985"
       style="font-style:normal;font-weight:normal;line-height:0.01%;font-family:sans-serif;letter-spacing:0px;word-spacing:0px;fill:#000000;fill-opacity:1;stroke:none"
       inkscape:export-filename="/home/anim/students/toma-deadline/7 titri/begin.png"
       inkscape:export-xdpi="420.66531"
       inkscape:export-ydpi="420.66531"
       transform="translate(8.2495903,40)"><flowRegion
         id="flowRegion2987"
         style="font-family:sans-serif"><rect
           id="rect2989"
           width="392.35464"
           height="637.97968"
           x="65.714287"
           y="80.933609"
           style="font-family:sans-serif" /></flowRegion><flowPara
         style="font-weight:bold;font-size:32px;line-height:1.25;font-family:sans-serif;-inkscape-font-specification:'Sans Bold';text-align:center;text-anchor:middle;fill:#ffffff"
         id="flowPara3820">MOREVNA</flowPara></flowRoot>    <flowRoot
       xml:space="preserve"
       id="flowRoot3804"
       style="font-style:normal;font-weight:normal;line-height:0.01%;font-family:sans-serif;letter-spacing:0px;word-spacing:0px;fill:#000000;fill-opacity:1;stroke:none"><flowRegion
         id="flowRegion3806"
         style="font-family:sans-serif"><rect
           id="rect3808"
           width="495.98489"
           height="643.46716"
           x="150.51273"
           y="60.392384"
           style="font-family:sans-serif" /></flowRegion><flowPara
         id="flowPara3810"
         style="font-size:40px;line-height:1.25;font-family:sans-serif"> </flowPara></flowRoot>    <flowRoot
       xml:space="preserve"
       id="flowRoot3812"
       style="font-style:normal;font-weight:normal;line-height:0.01%;font-family:sans-serif;letter-spacing:0px;word-spacing:0px;fill:#000000;fill-opacity:1;stroke:none;stroke-width:1px;stroke-linecap:butt;stroke-linejoin:miter;stroke-opacity:1"><flowRegion
         id="flowRegion3814"
         style="font-family:sans-serif"><rect
           id="rect3816"
           width="260.61935"
           height="115.15739"
           x="159.6041"
           y="82.615738"
           style="font-family:sans-serif" /></flowRegion><flowPara
         id="flowPara3818"
         style="font-size:40px;line-height:1.25;font-family:sans-serif"> </flowPara></flowRoot>    <flowRoot
       transform="translate(9.2886528,70.928176)"
       xml:space="preserve"
       id="flowRoot2985-3"
       style="font-style:normal;font-weight:normal;line-height:0.01%;font-family:sans-serif;letter-spacing:0px;word-spacing:0px;fill:#000000;fill-opacity:1;stroke:none"
       inkscape:export-filename="/home/anim/students/toma-deadline/7 titri/begin.png"
       inkscape:export-xdpi="420.66531"
       inkscape:export-ydpi="420.66531"><flowRegion
         id="flowRegion2987-6"
         style="font-family:sans-serif"><rect
           id="rect2989-7"
           width="392.35464"
           height="637.97968"
           x="65.714287"
           y="80.933609"
           style="font-family:sans-serif" /></flowRegion><flowPara
         style="font-weight:bold;font-size:16px;line-height:1.25;font-family:sans-serif;-inkscape-font-specification:'Sans Bold';text-align:center;text-anchor:middle;fill:#ffffff"
         id="flowPara3820-5">SCHOOL</flowPara></flowRoot>    <flowRoot
       transform="translate(9.4810356,143.07736)"
       xml:space="preserve"
       id="flowRoot2985-3-3"
       style="font-style:normal;font-weight:normal;line-height:0.01%;font-family:sans-serif;letter-spacing:0px;word-spacing:0px;fill:#000000;fill-opacity:1;stroke:none"
       inkscape:export-filename="/home/anim/students/toma-deadline/7 titri/begin.png"
       inkscape:export-xdpi="420.66531"
       inkscape:export-ydpi="420.66531"><flowRegion
         id="flowRegion2987-6-5"
         style="font-family:sans-serif"><rect
           id="rect2989-7-6"
           width="392.35464"
           height="637.97968"
           x="65.714287"
           y="80.933609"
           style="font-family:sans-serif" /></flowRegion><flowPara
         style="font-weight:normal;font-size:12px;line-height:1.25;font-family:sans-serif;-inkscape-font-specification:Sans;text-align:center;text-anchor:middle;fill:#ffffff"
         id="flowPara3058">ATELIERS D'ANIMATION</flowPara><flowPara
         style="font-weight:bold;font-size:12px;line-height:1.25;font-family:sans-serif;-inkscape-font-specification:'Sans Bold';text-align:center;text-anchor:middle;fill:#ffffff"
         id="flowPara3060">DE L'ÉCOLE D'ART &quot;ADAMANT&quot;</flowPara></flowRoot>  </g>
</svg>
